{
  "object": "list",
  "data": [
    {
      "id": "sub_G2abmOihEc1NXi",
      "object": "subscription",
      "application_fee_percent": null,
      "billing": "charge_automatically",
      "billing_cycle_anchor": 1571781722,
      "billing_thresholds": null,
      "cancel_at": null,
      "cancel_at_period_end": false,
      "canceled_at": null,
      "collection_method": "charge_automatically",
      "created": 1571781722,
      "current_period_end": 1574460122,
      "current_period_start": 1571781722,
      "customer": "cus_FzJt00uENozE77",
      "days_until_due": null,
      "default_payment_method": {
        "id": "pm_1FWVQUF1ioemexK5jqafDsVx",
        "object": "payment_method",
        "billing_details": {
          "address": {
            "city": null,
            "country": "US",
            "line1": null,
            "line2": null,
            "postal_code": "11111",
            "state": null
          },
          "email": "alex@alexgleason.me",
          "name": "a",
          "phone": null
        },
        "card": {
          "brand": "visa",
          "checks": {
            "address_line1_check": null,
            "address_postal_code_check": "pass",
            "cvc_check": "pass"
          },
          "country": "US",
          "exp_month": 1,
          "exp_year": 2022,
          "fingerprint": "IMooBIlKgDCHwWSs",
          "funding": "credit",
          "generated_from": null,
          "last4": "4242",
          "three_d_secure_usage": {
            "supported": true
          },
          "wallet": null
        },
        "created": 1571781722,
        "customer": "cus_FzJt00uENozE77",
        "livemode": false,
        "metadata": {
        },
        "type": "card"
      },
      "default_source": null,
      "default_tax_rates": [

      ],
      "discount": null,
      "ended_at": null,
      "items": {
        "object": "list",
        "data": [
          {
            "id": "si_G2abBsMEW3zFqs",
            "object": "subscription_item",
            "billing_thresholds": null,
            "created": 1571781723,
            "metadata": {
            },
            "plan": {
              "id": "plan_monthly_donation",
              "object": "plan",
              "active": true,
              "aggregate_usage": null,
              "amount": 1,
              "amount_decimal": "1",
              "billing_scheme": "per_unit",
              "created": 1571588184,
              "currency": "usd",
              "interval": "month",
              "interval_count": 1,
              "livemode": false,
              "metadata": {
              },
              "nickname": "Monthly Donation",
              "product": "prod_donation",
              "tiers": null,
              "tiers_mode": null,
              "transform_usage": null,
              "trial_period_days": null,
              "usage_type": "licensed"
            },
            "quantity": 1000,
            "subscription": "sub_G2abmOihEc1NXi",
            "tax_rates": [

            ]
          }
        ],
        "has_more": false,
        "total_count": 1,
        "url": "/v1/subscription_items?subscription=sub_G2abmOihEc1NXi"
      },
      "latest_invoice": "in_1FWVQVF1ioemexK5uMtyKPEg",
      "livemode": false,
      "metadata": {
      },
      "next_pending_invoice_item_invoice": null,
      "pending_invoice_item_interval": null,
      "pending_setup_intent": null,
      "plan": {
        "id": "plan_monthly_donation",
        "object": "plan",
        "active": true,
        "aggregate_usage": null,
        "amount": 1,
        "amount_decimal": "1",
        "billing_scheme": "per_unit",
        "created": 1571588184,
        "currency": "usd",
        "interval": "month",
        "interval_count": 1,
        "livemode": false,
        "metadata": {
        },
        "nickname": "Monthly Donation",
        "product": "prod_donation",
        "tiers": null,
        "tiers_mode": null,
        "transform_usage": null,
        "trial_period_days": null,
        "usage_type": "licensed"
      },
      "quantity": 1000,
      "schedule": null,
      "start": 1571781722,
      "start_date": 1571781722,
      "status": "active",
      "tax_percent": null,
      "trial_end": null,
      "trial_start": null
    }
  ],
  "has_more": false,
  "url": "/v1/subscriptions"
}
